Taller 08
…
Escoger el análisis estadístico correcto.

Interprete sus resultados incluyendo gráficas. Incluya el Valor-P, valor observado del estadístico de prueba, alfa escogido, coeficiente de determinación (\(R^2\)) o coeficiente de correlación (\(r\) y \(r^2\)), porcentaje explicado y porcentaje no explicado por el modelo. Discutir los resultados.

1. Relación en variables de cocodrilos [1.66 puntos]

** En el archivo Cocodrilos.xlxs se presentan los datos crudos de un estudio donde se pretendía medir si existe alguna relación entre el tamaño del huevo (en mm) con el tamaño de la nidada (promedio de los huevos en la puesta) en el Yacaré Overo (Caiman latirostris). Realice el respectivo análisis estadístico y discuta las implicaciones biológicas de este estudio. Realice el gráfico correspondiente.

cocodrilos <- read_excel("Cocodrilos.xlsx", sheet = 1)
cocodrilos$ClutchS <- as.numeric(cocodrilos$ClutchS)
cocodrilos$egg_size <- as.numeric(cocodrilos$egg_size)

cocodrilos

# A tibble: 57 × 2
   ClutchS egg_size
     <dbl>    <dbl>
 1      26     50  
 2      26     50  
 3      26     51.5
 4      24     51.5
 5      24     57.8
 6      24     57.5
 7      24     59.5
 8      23     59.2
 9      23     65  
10      23     61.5
# ℹ 47 more rows
…
